Sep 27 04:39:11.876 HYPERVISOR: Release 0.2.21-amd64/Linux (tag 2019071212)
Sep 27 04:39:11.876 HYPERVISOR: Started on IP = 127.0.0.1, TCP port = 56613.
Sep 27 04:39:11.886 HYPERVISOR: exec_cmd: hypervisor version 
Sep 27 04:39:11.886 HYPERVISOR: exec_cmd: hypervisor working_dir /home/caballero/redes3/practica/project-files/dynamips 
Sep 27 04:39:11.886 GENERAL: working_dir=/home/caballero/redes3/practica/project-files/dynamips
Sep 27 04:39:11.886 HYPERVISOR: exec_cmd: hypervisor working_dir /home/caballero/redes3/practica/project-files/dynamips/922f5750-1038-411a-a3cb-0c00ff075f82 
Sep 27 04:39:11.886 GENERAL: working_dir=/home/caballero/redes3/practica/project-files/dynamips/922f5750-1038-411a-a3cb-0c00ff075f82
Sep 27 04:39:11.887 HYPERVISOR: exec_cmd: vm create R14 14 c7200 
Sep 27 04:39:11.887 VM: VM R14 created.
Sep 27 04:39:11.887 HYPERVISOR: exec_cmd: vm set_con_tcp_port R14 5004 
Sep 27 04:39:11.887 HYPERVISOR: exec_cmd: c7200 get_mac_addr R14 
Sep 27 04:39:11.887 HYPERVISOR: exec_cmd: vm get_status R14 
Sep 27 04:39:11.887 HYPERVISOR: exec_cmd: vm slot_add_binding R14 0 0 C7200-IO-FE 
Sep 27 04:39:11.887 HYPERVISOR: exec_cmd: vm set_disk0 R14 0 
Sep 27 04:39:11.887 HYPERVISOR: exec_cmd: vm get_status R14 
Sep 27 04:39:11.887 HYPERVISOR: exec_cmd: vm set_idle_pc R14 0x60189214 
Sep 27 04:39:11.888 HYPERVISOR: exec_cmd: vm set_ios R14 /home/caballero/GNS3/images/IOS/c7200-adventerprisek9-mz.152-4.M7.image 
Sep 27 04:39:11.888 HYPERVISOR: exec_cmd: c7200 set_mac_addr R14 ca0e.3fc4.0000 
Sep 27 04:39:11.888 HYPERVISOR: exec_cmd: vm set_nvram R14 512 
Sep 27 04:39:11.888 HYPERVISOR: exec_cmd: vm set_ram R14 512 
Sep 27 04:39:11.888 HYPERVISOR: exec_cmd: vm get_status R14 
Sep 27 04:39:11.888 HYPERVISOR: exec_cmd: vm slot_add_binding R14 1 0 PA-FE-TX 
Sep 27 04:39:11.889 HYPERVISOR: exec_cmd: vm get_status R14 
Sep 27 04:39:11.889 HYPERVISOR: exec_cmd: vm slot_add_binding R14 2 0 PA-4T+ 
Sep 27 04:39:11.889 HYPERVISOR: exec_cmd: vm get_status R14 
Sep 27 04:39:11.889 HYPERVISOR: exec_cmd: vm slot_add_binding R14 3 0 PA-4T+ 
Sep 27 04:39:15.925 HYPERVISOR: exec_cmd: nio create_udp udp-b537c4ad-891c-4c0f-b237-e51a7c83fb83 10082 127.0.0.1 10083 
Sep 27 04:39:16.139 HYPERVISOR: exec_cmd: vm slot_add_nio_binding R14 0 0 udp-b537c4ad-891c-4c0f-b237-e51a7c83fb83 
Sep 27 04:39:16.140 HYPERVISOR: exec_cmd: vm get_status R14 
Sep 27 04:39:16.233 HYPERVISOR: exec_cmd: nio create_udp udp-2ad0d4b6-2533-494b-a555-6b24913cfdd6 10086 127.0.0.1 10087 
Sep 27 04:39:16.234 HYPERVISOR: exec_cmd: vm slot_add_nio_binding R14 1 0 udp-2ad0d4b6-2533-494b-a555-6b24913cfdd6 
Sep 27 04:39:16.234 HYPERVISOR: exec_cmd: vm get_status R14 
Sep 27 05:15:09.836 HYPERVISOR: exec_cmd: vm set_ios R14 /home/caballero/GNS3/images/IOS/c7200-adventerprisek9-mz.152-4.M7.image 
Sep 27 05:15:17.917 HYPERVISOR: exec_cmd: vm set_ios R14 /home/caballero/GNS3/images/IOS/c7200-adventerprisek9-mz.152-4.M7.image 
Sep 27 06:31:14.287 HYPERVISOR: exec_cmd: vm get_status R14 
Sep 27 06:31:14.288 HYPERVISOR: exec_cmd: vm extract_config R14 
Sep 27 06:31:14.289 HYPERVISOR: exec_cmd: vm delete R14 
Sep 27 06:31:14.289 VM: VM R14 destroyed.
Sep 27 06:31:14.290 HYPERVISOR: exec_cmd: hypervisor stop 
Sep 27 06:31:14.680 HYPERVISOR: Stopped.
Sep 27 06:31:14.680 GENERAL: reset done.
