Oct 03 03:47:17.762 HYPERVISOR: Release 0.2.21-amd64/Linux (tag 2019071212)
Oct 03 03:47:17.762 HYPERVISOR: Started on IP = 127.0.0.1, TCP port = 46019.
Oct 03 03:47:17.772 HYPERVISOR: exec_cmd: hypervisor version 
Oct 03 03:47:17.772 HYPERVISOR: exec_cmd: hypervisor working_dir /home/caballero/redes3/practica/project-files/dynamips 
Oct 03 03:47:17.772 GENERAL: working_dir=/home/caballero/redes3/practica/project-files/dynamips
Oct 03 03:47:17.773 HYPERVISOR: exec_cmd: hypervisor working_dir /home/caballero/redes3/practica/project-files/dynamips/22138756-1b99-4f28-9cf8-8de283c183f6 
Oct 03 03:47:17.773 GENERAL: working_dir=/home/caballero/redes3/practica/project-files/dynamips/22138756-1b99-4f28-9cf8-8de283c183f6
Oct 03 03:47:17.773 HYPERVISOR: exec_cmd: vm create R18 18 c7200 
Oct 03 03:47:17.773 VM: VM R18 created.
Oct 03 03:47:17.773 HYPERVISOR: exec_cmd: vm set_con_tcp_port R18 5017 
Oct 03 03:47:17.773 HYPERVISOR: exec_cmd: c7200 get_mac_addr R18 
Oct 03 03:47:17.774 HYPERVISOR: exec_cmd: vm get_status R18 
Oct 03 03:47:17.774 HYPERVISOR: exec_cmd: vm slot_add_binding R18 0 0 C7200-IO-FE 
Oct 03 03:47:17.774 HYPERVISOR: exec_cmd: vm set_disk0 R18 0 
Oct 03 03:47:17.774 HYPERVISOR: exec_cmd: vm get_status R18 
Oct 03 03:47:17.774 HYPERVISOR: exec_cmd: vm set_idle_pc R18 0x60189214 
Oct 03 03:47:17.775 HYPERVISOR: exec_cmd: vm set_ios R18 /home/caballero/GNS3/images/IOS/c7200-adventerprisek9-mz.152-4.M7.image 
Oct 03 03:47:17.775 HYPERVISOR: exec_cmd: c7200 set_mac_addr R18 ca12.4aa0.0000 
Oct 03 03:47:17.775 HYPERVISOR: exec_cmd: vm set_nvram R18 512 
Oct 03 03:47:17.775 HYPERVISOR: exec_cmd: vm set_ram R18 512 
Oct 03 03:47:17.775 HYPERVISOR: exec_cmd: vm get_status R18 
Oct 03 03:47:17.775 HYPERVISOR: exec_cmd: vm slot_add_binding R18 1 0 PA-FE-TX 
Oct 03 03:47:17.776 HYPERVISOR: exec_cmd: vm get_status R18 
Oct 03 03:47:17.776 HYPERVISOR: exec_cmd: vm slot_add_binding R18 2 0 PA-4T+ 
Oct 03 03:47:17.776 HYPERVISOR: exec_cmd: vm get_status R18 
Oct 03 03:47:17.776 HYPERVISOR: exec_cmd: vm slot_add_binding R18 3 0 PA-4T+ 
Oct 03 03:47:17.776 HYPERVISOR: exec_cmd: vm get_status R18 
Oct 03 03:47:17.776 HYPERVISOR: exec_cmd: vm slot_add_binding R18 4 0 PA-FE-TX 
Oct 03 03:47:23.231 HYPERVISOR: exec_cmd: nio create_udp udp-0612a499-96f9-4eb6-92b1-6bb3eae15a7a 10112 127.0.0.1 10113 
Oct 03 03:47:23.444 HYPERVISOR: exec_cmd: vm slot_add_nio_binding R18 0 0 udp-0612a499-96f9-4eb6-92b1-6bb3eae15a7a 
Oct 03 03:47:23.445 HYPERVISOR: exec_cmd: vm get_status R18 
Oct 03 03:47:23.538 HYPERVISOR: exec_cmd: nio create_udp udp-9c5be3de-95ef-41f3-a5dd-54752877d9ca 10116 127.0.0.1 10117 
Oct 03 03:47:23.539 HYPERVISOR: exec_cmd: vm slot_add_nio_binding R18 1 0 udp-9c5be3de-95ef-41f3-a5dd-54752877d9ca 
Oct 03 03:47:23.539 HYPERVISOR: exec_cmd: vm get_status R18 
Oct 03 03:47:23.922 HYPERVISOR: exec_cmd: nio create_udp udp-caaa22ec-5122-4a26-a270-67887022b888 10130 127.0.0.1 10131 
Oct 03 03:47:23.923 HYPERVISOR: exec_cmd: vm slot_add_nio_binding R18 4 0 udp-caaa22ec-5122-4a26-a270-67887022b888 
Oct 03 03:47:23.923 HYPERVISOR: exec_cmd: vm get_status R18 
