Oct 03 03:47:17.321 HYPERVISOR: Release 0.2.21-amd64/Linux (tag 2019071212)
Oct 03 03:47:17.321 HYPERVISOR: Started on IP = 127.0.0.1, TCP port = 33445.
Oct 03 03:47:17.331 HYPERVISOR: exec_cmd: hypervisor version 
Oct 03 03:47:17.331 HYPERVISOR: exec_cmd: hypervisor working_dir /home/caballero/redes3/practica/project-files/dynamips 
Oct 03 03:47:17.331 GENERAL: working_dir=/home/caballero/redes3/practica/project-files/dynamips
Oct 03 03:47:17.331 HYPERVISOR: exec_cmd: hypervisor working_dir /home/caballero/redes3/practica/project-files/dynamips/264351cb-8206-4bf9-87e9-6887561e180d 
Oct 03 03:47:17.331 GENERAL: working_dir=/home/caballero/redes3/practica/project-files/dynamips/264351cb-8206-4bf9-87e9-6887561e180d
Oct 03 03:47:17.332 HYPERVISOR: exec_cmd: vm create R2 2 c7200 
Oct 03 03:47:17.332 VM: VM R2 created.
Oct 03 03:47:17.332 HYPERVISOR: exec_cmd: vm set_con_tcp_port R2 5022 
Oct 03 03:47:17.332 HYPERVISOR: exec_cmd: c7200 get_mac_addr R2 
Oct 03 03:47:17.332 HYPERVISOR: exec_cmd: vm get_status R2 
Oct 03 03:47:17.332 HYPERVISOR: exec_cmd: vm slot_add_binding R2 0 0 C7200-IO-FE 
Oct 03 03:47:17.333 HYPERVISOR: exec_cmd: vm set_disk0 R2 0 
Oct 03 03:47:17.333 HYPERVISOR: exec_cmd: vm get_status R2 
Oct 03 03:47:17.333 HYPERVISOR: exec_cmd: vm set_idle_pc R2 0x60189214 
Oct 03 03:47:17.333 HYPERVISOR: exec_cmd: vm set_ios R2 /home/caballero/GNS3/images/IOS/c7200-adventerprisek9-mz.152-4.M7.image 
Oct 03 03:47:17.333 HYPERVISOR: exec_cmd: c7200 set_mac_addr R2 ca02.27a8.0000 
Oct 03 03:47:17.334 HYPERVISOR: exec_cmd: vm set_nvram R2 512 
Oct 03 03:47:17.334 HYPERVISOR: exec_cmd: vm set_ram R2 512 
Oct 03 03:47:17.334 HYPERVISOR: exec_cmd: vm get_status R2 
Oct 03 03:47:17.334 HYPERVISOR: exec_cmd: vm slot_add_binding R2 1 0 PA-FE-TX 
Oct 03 03:47:17.334 HYPERVISOR: exec_cmd: vm get_status R2 
Oct 03 03:47:17.334 HYPERVISOR: exec_cmd: vm slot_add_binding R2 2 0 PA-4T+ 
Oct 03 03:47:17.334 HYPERVISOR: exec_cmd: vm get_status R2 
Oct 03 03:47:17.334 HYPERVISOR: exec_cmd: vm slot_add_binding R2 3 0 PA-4T+ 
Oct 03 03:47:18.372 HYPERVISOR: exec_cmd: nio create_udp udp-cd276ef7-1a63-48ac-b209-1168bde1b7ed 10004 127.0.0.1 10005 
Oct 03 03:47:18.591 HYPERVISOR: exec_cmd: vm slot_add_nio_binding R2 0 0 udp-cd276ef7-1a63-48ac-b209-1168bde1b7ed 
Oct 03 03:47:18.592 HYPERVISOR: exec_cmd: vm get_status R2 
Oct 03 03:47:18.683 HYPERVISOR: exec_cmd: nio create_udp udp-aacb09e8-07a1-470d-b345-ce8b2b1aa009 10008 127.0.0.1 10009 
Oct 03 03:47:18.684 HYPERVISOR: exec_cmd: vm slot_add_nio_binding R2 1 0 udp-aacb09e8-07a1-470d-b345-ce8b2b1aa009 
Oct 03 03:47:18.684 HYPERVISOR: exec_cmd: vm get_status R2 
