Oct 03 03:47:17.639 HYPERVISOR: Release 0.2.21-amd64/Linux (tag 2019071212)
Oct 03 03:47:17.639 HYPERVISOR: Started on IP = 127.0.0.1, TCP port = 44103.
Oct 03 03:47:17.651 HYPERVISOR: exec_cmd: hypervisor version 
Oct 03 03:47:17.652 HYPERVISOR: exec_cmd: hypervisor working_dir /home/caballero/redes3/practica/project-files/dynamips 
Oct 03 03:47:17.652 GENERAL: working_dir=/home/caballero/redes3/practica/project-files/dynamips
Oct 03 03:47:17.653 HYPERVISOR: exec_cmd: hypervisor working_dir /home/caballero/redes3/practica/project-files/dynamips/5c112abd-0e76-4ac6-973a-f4845715318b 
Oct 03 03:47:17.653 GENERAL: working_dir=/home/caballero/redes3/practica/project-files/dynamips/5c112abd-0e76-4ac6-973a-f4845715318b
Oct 03 03:47:17.653 HYPERVISOR: exec_cmd: vm create R15 15 c7200 
Oct 03 03:47:17.654 VM: VM R15 created.
Oct 03 03:47:17.655 HYPERVISOR: exec_cmd: vm set_con_tcp_port R15 5014 
Oct 03 03:47:17.655 HYPERVISOR: exec_cmd: c7200 get_mac_addr R15 
Oct 03 03:47:17.656 HYPERVISOR: exec_cmd: vm get_status R15 
Oct 03 03:47:17.656 HYPERVISOR: exec_cmd: vm slot_add_binding R15 0 0 C7200-IO-FE 
Oct 03 03:47:17.658 HYPERVISOR: exec_cmd: vm set_disk0 R15 0 
Oct 03 03:47:17.658 HYPERVISOR: exec_cmd: vm get_status R15 
Oct 03 03:47:17.659 HYPERVISOR: exec_cmd: vm set_idle_pc R15 0x60189214 
Oct 03 03:47:17.660 HYPERVISOR: exec_cmd: vm set_ios R15 /home/caballero/GNS3/images/IOS/c7200-adventerprisek9-mz.152-4.M7.image 
Oct 03 03:47:17.661 HYPERVISOR: exec_cmd: c7200 set_mac_addr R15 ca0f.2798.0000 
Oct 03 03:47:17.662 HYPERVISOR: exec_cmd: vm set_nvram R15 512 
Oct 03 03:47:17.662 HYPERVISOR: exec_cmd: vm set_ram R15 512 
Oct 03 03:47:17.663 HYPERVISOR: exec_cmd: vm get_status R15 
Oct 03 03:47:17.664 HYPERVISOR: exec_cmd: vm slot_add_binding R15 1 0 PA-FE-TX 
Oct 03 03:47:17.664 HYPERVISOR: exec_cmd: vm get_status R15 
Oct 03 03:47:17.665 HYPERVISOR: exec_cmd: vm slot_add_binding R15 2 0 PA-4T+ 
Oct 03 03:47:17.666 HYPERVISOR: exec_cmd: vm get_status R15 
Oct 03 03:47:17.666 HYPERVISOR: exec_cmd: vm slot_add_binding R15 3 0 PA-4T+ 
Oct 03 03:47:21.372 HYPERVISOR: exec_cmd: nio create_udp udp-ded2c3e8-877a-47d4-b852-58573899f71b 10076 127.0.0.1 10077 
Oct 03 03:47:21.585 HYPERVISOR: exec_cmd: vm slot_add_nio_binding R15 0 0 udp-ded2c3e8-877a-47d4-b852-58573899f71b 
Oct 03 03:47:21.586 HYPERVISOR: exec_cmd: vm get_status R15 
Oct 03 03:47:21.654 HYPERVISOR: exec_cmd: nio create_udp udp-12eeefc5-76c0-4d6c-bc75-a44fc3c875c5 10080 127.0.0.1 10081 
Oct 03 03:47:21.655 HYPERVISOR: exec_cmd: vm slot_add_nio_binding R15 1 0 udp-12eeefc5-76c0-4d6c-bc75-a44fc3c875c5 
Oct 03 03:47:21.655 HYPERVISOR: exec_cmd: vm get_status R15 
