Oct 03 03:47:17.568 HYPERVISOR: Release 0.2.21-amd64/Linux (tag 2019071212)
Oct 03 03:47:17.568 HYPERVISOR: Started on IP = 127.0.0.1, TCP port = 58045.
Oct 03 03:47:17.578 HYPERVISOR: exec_cmd: hypervisor version 
Oct 03 03:47:17.578 HYPERVISOR: exec_cmd: hypervisor working_dir /home/caballero/redes3/practica/project-files/dynamips 
Oct 03 03:47:17.578 GENERAL: working_dir=/home/caballero/redes3/practica/project-files/dynamips
Oct 03 03:47:17.579 HYPERVISOR: exec_cmd: hypervisor working_dir /home/caballero/redes3/practica/project-files/dynamips/bc9268ca-739c-48e9-8f23-582714edae2c 
Oct 03 03:47:17.579 GENERAL: working_dir=/home/caballero/redes3/practica/project-files/dynamips/bc9268ca-739c-48e9-8f23-582714edae2c
Oct 03 03:47:17.579 HYPERVISOR: exec_cmd: vm create R12 12 c7200 
Oct 03 03:47:17.579 VM: VM R12 created.
Oct 03 03:47:17.579 HYPERVISOR: exec_cmd: vm set_con_tcp_port R12 5002 
Oct 03 03:47:17.579 HYPERVISOR: exec_cmd: c7200 get_mac_addr R12 
Oct 03 03:47:17.579 HYPERVISOR: exec_cmd: vm get_status R12 
Oct 03 03:47:17.579 HYPERVISOR: exec_cmd: vm slot_add_binding R12 0 0 C7200-IO-FE 
Oct 03 03:47:17.580 HYPERVISOR: exec_cmd: vm set_disk0 R12 0 
Oct 03 03:47:17.580 HYPERVISOR: exec_cmd: vm get_status R12 
Oct 03 03:47:17.580 HYPERVISOR: exec_cmd: vm set_idle_pc R12 0x60189214 
Oct 03 03:47:17.580 HYPERVISOR: exec_cmd: vm set_ios R12 /home/caballero/GNS3/images/IOS/c7200-adventerprisek9-mz.152-4.M7.image 
Oct 03 03:47:17.580 HYPERVISOR: exec_cmd: c7200 set_mac_addr R12 ca0c.208c.0000 
Oct 03 03:47:17.581 HYPERVISOR: exec_cmd: vm set_nvram R12 512 
Oct 03 03:47:17.581 HYPERVISOR: exec_cmd: vm set_ram R12 512 
Oct 03 03:47:17.581 HYPERVISOR: exec_cmd: vm get_status R12 
Oct 03 03:47:17.581 HYPERVISOR: exec_cmd: vm slot_add_binding R12 1 0 PA-FE-TX 
Oct 03 03:47:17.581 HYPERVISOR: exec_cmd: vm get_status R12 
Oct 03 03:47:17.581 HYPERVISOR: exec_cmd: vm slot_add_binding R12 2 0 PA-4T+ 
Oct 03 03:47:17.581 HYPERVISOR: exec_cmd: vm get_status R12 
Oct 03 03:47:17.581 HYPERVISOR: exec_cmd: vm slot_add_binding R12 3 0 PA-4T+ 
Oct 03 03:47:20.996 HYPERVISOR: exec_cmd: nio create_udp udp-2c3c9272-5f2d-462c-bbac-5435aa8d073c 10064 127.0.0.1 10065 
Oct 03 03:47:21.210 HYPERVISOR: exec_cmd: vm slot_add_nio_binding R12 0 0 udp-2c3c9272-5f2d-462c-bbac-5435aa8d073c 
Oct 03 03:47:21.211 HYPERVISOR: exec_cmd: vm get_status R12 
Oct 03 03:47:21.301 HYPERVISOR: exec_cmd: nio create_udp udp-60ba8a8e-706d-44a1-afaa-f73f011b6530 10068 127.0.0.1 10069 
Oct 03 03:47:21.302 HYPERVISOR: exec_cmd: vm slot_add_nio_binding R12 1 0 udp-60ba8a8e-706d-44a1-afaa-f73f011b6530 
Oct 03 03:47:21.302 HYPERVISOR: exec_cmd: vm get_status R12 
