Oct 03 03:47:17.544 HYPERVISOR: Release 0.2.21-amd64/Linux (tag 2019071212)
Oct 03 03:47:17.544 HYPERVISOR: Started on IP = 127.0.0.1, TCP port = 51101.
Oct 03 03:47:17.554 HYPERVISOR: exec_cmd: hypervisor version 
Oct 03 03:47:17.554 HYPERVISOR: exec_cmd: hypervisor working_dir /home/caballero/redes3/practica/project-files/dynamips 
Oct 03 03:47:17.554 GENERAL: working_dir=/home/caballero/redes3/practica/project-files/dynamips
Oct 03 03:47:17.554 HYPERVISOR: exec_cmd: hypervisor working_dir /home/caballero/redes3/practica/project-files/dynamips/8c67ad25-929f-439c-a1a4-ed7538d63cea 
Oct 03 03:47:17.554 GENERAL: working_dir=/home/caballero/redes3/practica/project-files/dynamips/8c67ad25-929f-439c-a1a4-ed7538d63cea
Oct 03 03:47:17.555 HYPERVISOR: exec_cmd: vm create R11 11 c7200 
Oct 03 03:47:17.555 VM: VM R11 created.
Oct 03 03:47:17.555 HYPERVISOR: exec_cmd: vm set_con_tcp_port R11 5001 
Oct 03 03:47:17.555 HYPERVISOR: exec_cmd: c7200 get_mac_addr R11 
Oct 03 03:47:17.555 HYPERVISOR: exec_cmd: vm get_status R11 
Oct 03 03:47:17.555 HYPERVISOR: exec_cmd: vm slot_add_binding R11 0 0 C7200-IO-FE 
Oct 03 03:47:17.556 HYPERVISOR: exec_cmd: vm set_disk0 R11 0 
Oct 03 03:47:17.556 HYPERVISOR: exec_cmd: vm get_status R11 
Oct 03 03:47:17.556 HYPERVISOR: exec_cmd: vm set_idle_pc R11 0x60189214 
Oct 03 03:47:17.556 HYPERVISOR: exec_cmd: vm set_ios R11 /home/caballero/GNS3/images/IOS/c7200-adventerprisek9-mz.152-4.M7.image 
Oct 03 03:47:17.556 HYPERVISOR: exec_cmd: c7200 set_mac_addr R11 ca0b.4424.0000 
Oct 03 03:47:17.556 HYPERVISOR: exec_cmd: vm set_nvram R11 512 
Oct 03 03:47:17.557 HYPERVISOR: exec_cmd: vm set_ram R11 512 
Oct 03 03:47:17.557 HYPERVISOR: exec_cmd: vm get_status R11 
Oct 03 03:47:17.557 HYPERVISOR: exec_cmd: vm slot_add_binding R11 1 0 PA-FE-TX 
Oct 03 03:47:17.557 HYPERVISOR: exec_cmd: vm get_status R11 
Oct 03 03:47:17.557 HYPERVISOR: exec_cmd: vm slot_add_binding R11 2 0 PA-4T+ 
Oct 03 03:47:17.557 HYPERVISOR: exec_cmd: vm get_status R11 
Oct 03 03:47:17.557 HYPERVISOR: exec_cmd: vm slot_add_binding R11 3 0 PA-4T+ 
Oct 03 03:47:17.557 HYPERVISOR: exec_cmd: vm get_status R11 
Oct 03 03:47:17.557 HYPERVISOR: exec_cmd: vm slot_add_binding R11 4 0 PA-FE-TX 
Oct 03 03:47:20.683 HYPERVISOR: exec_cmd: nio create_udp udp-3b63ce16-29b6-4454-9d12-70f1a2835837 10058 127.0.0.1 10059 
Oct 03 03:47:20.897 HYPERVISOR: exec_cmd: vm slot_add_nio_binding R11 0 0 udp-3b63ce16-29b6-4454-9d12-70f1a2835837 
Oct 03 03:47:20.898 HYPERVISOR: exec_cmd: vm get_status R11 
Oct 03 03:47:21.308 HYPERVISOR: exec_cmd: nio create_udp udp-b1043dcf-536b-4757-9323-b6da4d823212 10070 127.0.0.1 10071 
Oct 03 03:47:21.308 HYPERVISOR: exec_cmd: vm slot_add_nio_binding R11 1 0 udp-b1043dcf-536b-4757-9323-b6da4d823212 
Oct 03 03:47:21.309 HYPERVISOR: exec_cmd: vm get_status R11 
Oct 03 03:47:21.366 HYPERVISOR: exec_cmd: nio create_udp udp-f394d007-21a4-43b4-a833-be4278a964c0 10074 127.0.0.1 10075 
Oct 03 03:47:21.367 HYPERVISOR: exec_cmd: vm slot_add_nio_binding R11 4 0 udp-f394d007-21a4-43b4-a833-be4278a964c0 
Oct 03 03:47:21.367 HYPERVISOR: exec_cmd: vm get_status R11 
