Oct 03 03:47:17.615 HYPERVISOR: Release 0.2.21-amd64/Linux (tag 2019071212)
Oct 03 03:47:17.615 HYPERVISOR: Started on IP = 127.0.0.1, TCP port = 59049.
Oct 03 03:47:17.625 HYPERVISOR: exec_cmd: hypervisor version 
Oct 03 03:47:17.625 HYPERVISOR: exec_cmd: hypervisor working_dir /home/caballero/redes3/practica/project-files/dynamips 
Oct 03 03:47:17.625 GENERAL: working_dir=/home/caballero/redes3/practica/project-files/dynamips
Oct 03 03:47:17.626 HYPERVISOR: exec_cmd: hypervisor working_dir /home/caballero/redes3/practica/project-files/dynamips/922f5750-1038-411a-a3cb-0c00ff075f82 
Oct 03 03:47:17.626 GENERAL: working_dir=/home/caballero/redes3/practica/project-files/dynamips/922f5750-1038-411a-a3cb-0c00ff075f82
Oct 03 03:47:17.626 HYPERVISOR: exec_cmd: vm create R14 14 c7200 
Oct 03 03:47:17.626 VM: VM R14 created.
Oct 03 03:47:17.626 HYPERVISOR: exec_cmd: vm set_con_tcp_port R14 5004 
Oct 03 03:47:17.626 HYPERVISOR: exec_cmd: c7200 get_mac_addr R14 
Oct 03 03:47:17.627 HYPERVISOR: exec_cmd: vm get_status R14 
Oct 03 03:47:17.627 HYPERVISOR: exec_cmd: vm slot_add_binding R14 0 0 C7200-IO-FE 
Oct 03 03:47:17.627 HYPERVISOR: exec_cmd: vm set_disk0 R14 0 
Oct 03 03:47:17.627 HYPERVISOR: exec_cmd: vm get_status R14 
Oct 03 03:47:17.627 HYPERVISOR: exec_cmd: vm set_idle_pc R14 0x60189214 
Oct 03 03:47:17.627 HYPERVISOR: exec_cmd: vm set_ios R14 /home/caballero/GNS3/images/IOS/c7200-adventerprisek9-mz.152-4.M7.image 
Oct 03 03:47:17.628 HYPERVISOR: exec_cmd: c7200 set_mac_addr R14 ca0e.3fc4.0000 
Oct 03 03:47:17.628 HYPERVISOR: exec_cmd: vm set_nvram R14 512 
Oct 03 03:47:17.628 HYPERVISOR: exec_cmd: vm set_ram R14 512 
Oct 03 03:47:17.628 HYPERVISOR: exec_cmd: vm get_status R14 
Oct 03 03:47:17.628 HYPERVISOR: exec_cmd: vm slot_add_binding R14 1 0 PA-FE-TX 
Oct 03 03:47:17.628 HYPERVISOR: exec_cmd: vm get_status R14 
Oct 03 03:47:17.628 HYPERVISOR: exec_cmd: vm slot_add_binding R14 2 0 PA-4T+ 
Oct 03 03:47:17.629 HYPERVISOR: exec_cmd: vm get_status R14 
Oct 03 03:47:17.629 HYPERVISOR: exec_cmd: vm slot_add_binding R14 3 0 PA-4T+ 
Oct 03 03:47:21.660 HYPERVISOR: exec_cmd: nio create_udp udp-ee374da0-1346-4d06-8dcc-e055a547b716 10082 127.0.0.1 10083 
Oct 03 03:47:21.873 HYPERVISOR: exec_cmd: vm slot_add_nio_binding R14 0 0 udp-ee374da0-1346-4d06-8dcc-e055a547b716 
Oct 03 03:47:21.874 HYPERVISOR: exec_cmd: vm get_status R14 
Oct 03 03:47:21.981 HYPERVISOR: exec_cmd: nio create_udp udp-56b45ce5-641c-4751-b3b5-a91dab1d7e0b 10086 127.0.0.1 10087 
Oct 03 03:47:21.983 HYPERVISOR: exec_cmd: vm slot_add_nio_binding R14 1 0 udp-56b45ce5-641c-4751-b3b5-a91dab1d7e0b 
Oct 03 03:47:21.983 HYPERVISOR: exec_cmd: vm get_status R14 
