Sep 27 04:39:11.999 HYPERVISOR: Release 0.2.21-amd64/Linux (tag 2019071212)
Sep 27 04:39:11.999 HYPERVISOR: Started on IP = 127.0.0.1, TCP port = 33587.
Sep 27 04:39:12.009 HYPERVISOR: exec_cmd: hypervisor version 
Sep 27 04:39:12.009 HYPERVISOR: exec_cmd: hypervisor working_dir /home/caballero/redes3/practica/project-files/dynamips 
Sep 27 04:39:12.009 GENERAL: working_dir=/home/caballero/redes3/practica/project-files/dynamips
Sep 27 04:39:12.009 HYPERVISOR: exec_cmd: hypervisor working_dir /home/caballero/redes3/practica/project-files/dynamips/9c145238-1207-406d-ad4f-6ad8f86f3fd1 
Sep 27 04:39:12.009 GENERAL: working_dir=/home/caballero/redes3/practica/project-files/dynamips/9c145238-1207-406d-ad4f-6ad8f86f3fd1
Sep 27 04:39:12.009 HYPERVISOR: exec_cmd: vm create R19 19 c7200 
Sep 27 04:39:12.009 VM: VM R19 created.
Sep 27 04:39:12.009 HYPERVISOR: exec_cmd: vm set_con_tcp_port R19 5018 
Sep 27 04:39:12.009 HYPERVISOR: exec_cmd: c7200 get_mac_addr R19 
Sep 27 04:39:12.009 HYPERVISOR: exec_cmd: vm get_status R19 
Sep 27 04:39:12.010 HYPERVISOR: exec_cmd: vm slot_add_binding R19 0 0 C7200-IO-FE 
Sep 27 04:39:12.010 HYPERVISOR: exec_cmd: vm set_disk0 R19 0 
Sep 27 04:39:12.010 HYPERVISOR: exec_cmd: vm get_status R19 
Sep 27 04:39:12.010 HYPERVISOR: exec_cmd: vm set_idle_pc R19 0x60189214 
Sep 27 04:39:12.011 HYPERVISOR: exec_cmd: vm set_ios R19 /home/caballero/GNS3/images/IOS/c7200-adventerprisek9-mz.152-4.M7.image 
Sep 27 04:39:12.011 HYPERVISOR: exec_cmd: c7200 set_mac_addr R19 ca13.4d50.0000 
Sep 27 04:39:12.011 HYPERVISOR: exec_cmd: vm set_nvram R19 512 
Sep 27 04:39:12.011 HYPERVISOR: exec_cmd: vm set_ram R19 512 
Sep 27 04:39:12.011 HYPERVISOR: exec_cmd: vm get_status R19 
Sep 27 04:39:12.011 HYPERVISOR: exec_cmd: vm slot_add_binding R19 1 0 PA-FE-TX 
Sep 27 04:39:12.011 HYPERVISOR: exec_cmd: vm get_status R19 
Sep 27 04:39:12.012 HYPERVISOR: exec_cmd: vm slot_add_binding R19 2 0 PA-4T+ 
Sep 27 04:39:12.012 HYPERVISOR: exec_cmd: vm get_status R19 
Sep 27 04:39:12.012 HYPERVISOR: exec_cmd: vm slot_add_binding R19 3 0 PA-4T+ 
Sep 27 04:39:12.012 HYPERVISOR: exec_cmd: vm get_status R19 
Sep 27 04:39:12.012 HYPERVISOR: exec_cmd: vm slot_add_binding R19 4 0 PA-FE-TX 
Sep 27 04:39:17.798 HYPERVISOR: exec_cmd: nio create_udp udp-86c70e75-4c20-4039-87e0-ac56b87ceede 10118 127.0.0.1 10119 
Sep 27 04:39:18.012 HYPERVISOR: exec_cmd: vm slot_add_nio_binding R19 0 0 udp-86c70e75-4c20-4039-87e0-ac56b87ceede 
Sep 27 04:39:18.013 HYPERVISOR: exec_cmd: vm get_status R19 
Sep 27 04:39:18.104 HYPERVISOR: exec_cmd: nio create_udp udp-bb9c4931-cb8d-4d10-90b9-caa48c17477b 10122 127.0.0.1 10123 
Sep 27 04:39:18.105 HYPERVISOR: exec_cmd: vm slot_add_nio_binding R19 1 0 udp-bb9c4931-cb8d-4d10-90b9-caa48c17477b 
Sep 27 04:39:18.105 HYPERVISOR: exec_cmd: vm get_status R19 
Sep 27 04:39:18.485 HYPERVISOR: exec_cmd: nio create_udp udp-05e8a5c6-b930-40e0-a0e5-d0c1afda6d8d 10136 127.0.0.1 10137 
Sep 27 04:39:18.487 HYPERVISOR: exec_cmd: vm slot_add_nio_binding R19 4 0 udp-05e8a5c6-b930-40e0-a0e5-d0c1afda6d8d 
Sep 27 04:39:18.488 HYPERVISOR: exec_cmd: vm get_status R19 
Sep 27 05:15:11.594 HYPERVISOR: exec_cmd: vm set_ios R19 /home/caballero/GNS3/images/IOS/c7200-adventerprisek9-mz.152-4.M7.image 
Sep 27 05:15:12.566 HYPERVISOR: exec_cmd: vm set_ios R19 /home/caballero/GNS3/images/IOS/c7200-adventerprisek9-mz.152-4.M7.image 
Sep 27 06:31:14.199 HYPERVISOR: exec_cmd: vm get_status R19 
Sep 27 06:31:14.199 HYPERVISOR: exec_cmd: vm extract_config R19 
Sep 27 06:31:14.200 HYPERVISOR: exec_cmd: vm delete R19 
Sep 27 06:31:14.200 VM: VM R19 destroyed.
Sep 27 06:31:14.200 HYPERVISOR: exec_cmd: hypervisor stop 
Sep 27 06:31:14.281 HYPERVISOR: Stopped.
Sep 27 06:31:14.281 GENERAL: reset done.
