Sep 27 04:39:11.852 HYPERVISOR: Release 0.2.21-amd64/Linux (tag 2019071212)
Sep 27 04:39:11.852 HYPERVISOR: Started on IP = 127.0.0.1, TCP port = 47649.
Sep 27 04:39:11.862 HYPERVISOR: exec_cmd: hypervisor version 
Sep 27 04:39:11.862 HYPERVISOR: exec_cmd: hypervisor working_dir /home/caballero/redes3/practica/project-files/dynamips 
Sep 27 04:39:11.862 GENERAL: working_dir=/home/caballero/redes3/practica/project-files/dynamips
Sep 27 04:39:11.862 HYPERVISOR: exec_cmd: hypervisor working_dir /home/caballero/redes3/practica/project-files/dynamips/6b8e5551-89a5-452b-b4de-76058312d908 
Sep 27 04:39:11.862 GENERAL: working_dir=/home/caballero/redes3/practica/project-files/dynamips/6b8e5551-89a5-452b-b4de-76058312d908
Sep 27 04:39:11.862 HYPERVISOR: exec_cmd: vm create R13 13 c7200 
Sep 27 04:39:11.862 VM: VM R13 created.
Sep 27 04:39:11.863 HYPERVISOR: exec_cmd: vm set_con_tcp_port R13 5003 
Sep 27 04:39:11.863 HYPERVISOR: exec_cmd: c7200 get_mac_addr R13 
Sep 27 04:39:11.863 HYPERVISOR: exec_cmd: vm get_status R13 
Sep 27 04:39:11.863 HYPERVISOR: exec_cmd: vm slot_add_binding R13 0 0 C7200-IO-FE 
Sep 27 04:39:11.863 HYPERVISOR: exec_cmd: vm set_disk0 R13 0 
Sep 27 04:39:11.863 HYPERVISOR: exec_cmd: vm get_status R13 
Sep 27 04:39:11.863 HYPERVISOR: exec_cmd: vm set_idle_pc R13 0x60189214 
Sep 27 04:39:11.864 HYPERVISOR: exec_cmd: vm set_ios R13 /home/caballero/GNS3/images/IOS/c7200-adventerprisek9-mz.152-4.M7.image 
Sep 27 04:39:11.864 HYPERVISOR: exec_cmd: c7200 set_mac_addr R13 ca0d.0858.0000 
Sep 27 04:39:11.864 HYPERVISOR: exec_cmd: vm set_nvram R13 512 
Sep 27 04:39:11.864 HYPERVISOR: exec_cmd: vm set_ram R13 512 
Sep 27 04:39:11.864 HYPERVISOR: exec_cmd: vm get_status R13 
Sep 27 04:39:11.864 HYPERVISOR: exec_cmd: vm slot_add_binding R13 1 0 PA-FE-TX 
Sep 27 04:39:11.864 HYPERVISOR: exec_cmd: vm get_status R13 
Sep 27 04:39:11.864 HYPERVISOR: exec_cmd: vm slot_add_binding R13 2 0 PA-4T+ 
Sep 27 04:39:11.865 HYPERVISOR: exec_cmd: vm get_status R13 
Sep 27 04:39:11.865 HYPERVISOR: exec_cmd: vm slot_add_binding R13 3 0 PA-4T+ 
Sep 27 04:39:16.239 HYPERVISOR: exec_cmd: nio create_udp udp-2c099ce5-c935-4d16-b6eb-174d62e48e16 10088 127.0.0.1 10089 
Sep 27 04:39:16.453 HYPERVISOR: exec_cmd: vm slot_add_nio_binding R13 0 0 udp-2c099ce5-c935-4d16-b6eb-174d62e48e16 
Sep 27 04:39:16.454 HYPERVISOR: exec_cmd: vm get_status R13 
Sep 27 04:39:16.553 HYPERVISOR: exec_cmd: nio create_udp udp-687e19e4-15c7-4565-802d-8e378af872d7 10094 127.0.0.1 10095 
Sep 27 04:39:16.554 HYPERVISOR: exec_cmd: vm slot_add_nio_binding R13 1 0 udp-687e19e4-15c7-4565-802d-8e378af872d7 
Sep 27 04:39:16.554 HYPERVISOR: exec_cmd: vm get_status R13 
Sep 27 05:15:14.977 HYPERVISOR: exec_cmd: vm set_ios R13 /home/caballero/GNS3/images/IOS/c7200-adventerprisek9-mz.152-4.M7.image 
Sep 27 05:15:19.494 HYPERVISOR: exec_cmd: vm set_ios R13 /home/caballero/GNS3/images/IOS/c7200-adventerprisek9-mz.152-4.M7.image 
Sep 27 06:31:14.077 HYPERVISOR: exec_cmd: vm get_status R13 
Sep 27 06:31:14.078 HYPERVISOR: exec_cmd: vm extract_config R13 
Sep 27 06:31:14.078 HYPERVISOR: exec_cmd: vm delete R13 
Sep 27 06:31:14.078 VM: VM R13 destroyed.
Sep 27 06:31:14.079 HYPERVISOR: exec_cmd: hypervisor stop 
Sep 27 06:31:14.090 HYPERVISOR: Stopped.
Sep 27 06:31:14.090 GENERAL: reset done.
