Sep 27 04:39:11.950 HYPERVISOR: Release 0.2.21-amd64/Linux (tag 2019071212)
Sep 27 04:39:11.950 HYPERVISOR: Started on IP = 127.0.0.1, TCP port = 58357.
Sep 27 04:39:11.960 HYPERVISOR: exec_cmd: hypervisor version 
Sep 27 04:39:11.960 HYPERVISOR: exec_cmd: hypervisor working_dir /home/caballero/redes3/practica/project-files/dynamips 
Sep 27 04:39:11.960 GENERAL: working_dir=/home/caballero/redes3/practica/project-files/dynamips
Sep 27 04:39:11.960 HYPERVISOR: exec_cmd: hypervisor working_dir /home/caballero/redes3/practica/project-files/dynamips/13651b02-12b4-4684-ba1e-e8673de459ea 
Sep 27 04:39:11.960 GENERAL: working_dir=/home/caballero/redes3/practica/project-files/dynamips/13651b02-12b4-4684-ba1e-e8673de459ea
Sep 27 04:39:11.960 HYPERVISOR: exec_cmd: vm create R17 17 c7200 
Sep 27 04:39:11.960 VM: VM R17 created.
Sep 27 04:39:11.961 HYPERVISOR: exec_cmd: vm set_con_tcp_port R17 5016 
Sep 27 04:39:11.961 HYPERVISOR: exec_cmd: c7200 get_mac_addr R17 
Sep 27 04:39:11.961 HYPERVISOR: exec_cmd: vm get_status R17 
Sep 27 04:39:11.961 HYPERVISOR: exec_cmd: vm slot_add_binding R17 0 0 C7200-IO-FE 
Sep 27 04:39:11.961 HYPERVISOR: exec_cmd: vm set_disk0 R17 0 
Sep 27 04:39:11.961 HYPERVISOR: exec_cmd: vm get_status R17 
Sep 27 04:39:11.961 HYPERVISOR: exec_cmd: vm set_idle_pc R17 0x60189214 
Sep 27 04:39:11.962 HYPERVISOR: exec_cmd: vm set_ios R17 /home/caballero/GNS3/images/IOS/c7200-adventerprisek9-mz.152-4.M7.image 
Sep 27 04:39:11.962 HYPERVISOR: exec_cmd: c7200 set_mac_addr R17 ca11.1bcc.0000 
Sep 27 04:39:11.962 HYPERVISOR: exec_cmd: vm set_nvram R17 512 
Sep 27 04:39:11.962 HYPERVISOR: exec_cmd: vm set_ram R17 512 
Sep 27 04:39:11.962 HYPERVISOR: exec_cmd: vm get_status R17 
Sep 27 04:39:11.962 HYPERVISOR: exec_cmd: vm slot_add_binding R17 1 0 PA-FE-TX 
Sep 27 04:39:11.962 HYPERVISOR: exec_cmd: vm get_status R17 
Sep 27 04:39:11.962 HYPERVISOR: exec_cmd: vm slot_add_binding R17 2 0 PA-4T+ 
Sep 27 04:39:11.963 HYPERVISOR: exec_cmd: vm get_status R17 
Sep 27 04:39:11.963 HYPERVISOR: exec_cmd: vm slot_add_binding R17 3 0 PA-4T+ 
Sep 27 04:39:11.963 HYPERVISOR: exec_cmd: vm get_status R17 
Sep 27 04:39:11.963 HYPERVISOR: exec_cmd: vm slot_add_binding R17 4 0 PA-FE-TX 
Sep 27 04:39:17.172 HYPERVISOR: exec_cmd: nio create_udp udp-3e42e8fe-d555-417e-bc23-bbcea8730025 10106 127.0.0.1 10107 
Sep 27 04:39:17.386 HYPERVISOR: exec_cmd: vm slot_add_nio_binding R17 0 0 udp-3e42e8fe-d555-417e-bc23-bbcea8730025 
Sep 27 04:39:17.387 HYPERVISOR: exec_cmd: vm get_status R17 
Sep 27 04:39:18.111 HYPERVISOR: exec_cmd: nio create_udp udp-6138ec12-27dc-488d-8f0c-13d30dd42c58 10124 127.0.0.1 10125 
Sep 27 04:39:18.112 HYPERVISOR: exec_cmd: vm slot_add_nio_binding R17 1 0 udp-6138ec12-27dc-488d-8f0c-13d30dd42c58 
Sep 27 04:39:18.112 HYPERVISOR: exec_cmd: vm get_status R17 
Sep 27 04:39:18.172 HYPERVISOR: exec_cmd: nio create_udp udp-1bcc9f6d-f2dd-4c8e-abe0-280f370ffbcb 10128 127.0.0.1 10129 
Sep 27 04:39:18.173 HYPERVISOR: exec_cmd: vm slot_add_nio_binding R17 4 0 udp-1bcc9f6d-f2dd-4c8e-abe0-280f370ffbcb 
Sep 27 04:39:18.173 HYPERVISOR: exec_cmd: vm get_status R17 
Sep 27 05:15:12.305 HYPERVISOR: exec_cmd: vm set_ios R17 /home/caballero/GNS3/images/IOS/c7200-adventerprisek9-mz.152-4.M7.image 
Sep 27 05:15:13.644 HYPERVISOR: exec_cmd: vm set_ios R17 /home/caballero/GNS3/images/IOS/c7200-adventerprisek9-mz.152-4.M7.image 
Sep 27 06:31:14.041 HYPERVISOR: exec_cmd: vm get_status R17 
Sep 27 06:31:14.042 HYPERVISOR: exec_cmd: vm extract_config R17 
Sep 27 06:31:14.042 HYPERVISOR: exec_cmd: vm delete R17 
Sep 27 06:31:14.042 VM: VM R17 destroyed.
Sep 27 06:31:14.042 HYPERVISOR: exec_cmd: hypervisor stop 
Sep 27 06:31:14.289 HYPERVISOR: Stopped.
Sep 27 06:31:14.289 GENERAL: reset done.
